[gd_resource type="Resource" script_class="CardData" load_steps=4 format=3 uid="uid://dhum1ugox4e60"]

[ext_resource type="Resource" uid="uid://cbyv6bkekedkd" path="res://Cards/Effects/Draw+.tres" id="1_1ca7a"]
[ext_resource type="Script" path="res://Cards/cardsBase/CardData.gd" id="1_xt834"]
[ext_resource type="Texture2D" uid="uid://xjhn8bt2ytu5" path="res://Img/Francisco-Pizarro.webp" id="2_1dire"]

[resource]
resource_local_to_scene = true
script = ExtResource("1_xt834")
Vida = 4
Ataque = 1
Defensa = 2
Nombre = "Conquistador"
Texto = "Robas + 1"
Imagen = ExtResource("2_1dire")
Efectos = Array[Resource("res://Cards/Effects/EfectData.gd")]([ExtResource("1_1ca7a")])
