[gd_resource type="Resource" script_class="CardData" load_steps=4 format=3 uid="uid://do5ddduuggpku"]

[ext_resource type="Resource" uid="uid://bsnfqx07hk1dv" path="res://Cards/Effects/Heal.tres" id="1_5oopi"]
[ext_resource type="Script" path="res://Cards/cardsBase/CardData.gd" id="1_h0uix"]
[ext_resource type="Texture2D" uid="uid://gm2ubcanrw26" path="res://Img/playerGrey_up2.png" id="1_vtpu1"]

[resource]
script = ExtResource("1_h0uix")
Vida = 4
Ataque = 0
Defensa = 3
Nombre = "Tanke"
Texto = "On Play: +2 hp All"
Imagen = ExtResource("1_vtpu1")
Efectos = Array[Resource("res://Cards/Effects/EfectData.gd")]([ExtResource("1_5oopi")])
