[gd_scene load_steps=4 format=3 uid="uid://b1rdmp6vsitm7"]

[ext_resource type="Script" path="res://GameLoop/player.gd" id="1_wyblh"]
[ext_resource type="PackedScene" uid="uid://b0xqb508rmx4y" path="res://Deck/baraja.tscn" id="2_0ry1b"]
[ext_resource type="FontFile" uid="uid://ngncabsvxap5" path="res://Font/Xolonium-Regular.ttf" id="3_8vfel"]

[node name="Player" type="Node2D"]
script = ExtResource("1_wyblh")

[node name="Baraja" parent="." instance=ExtResource("2_0ry1b")]
position = Vector2(6, 171)

[node name="HP" type="Label" parent="."]
offset_left = 14.0
offset_top = -55.0
offset_right = 107.0
offset_bottom = -16.0
scale = Vector2(2.12508, 2.42302)
theme_override_colors/font_color = Color(0, 0.756863, 0, 1)
theme_override_fonts/font = ExtResource("3_8vfel")
theme_override_font_sizes/font_size = 32
text = "HP: 1"

[node name="Plays" type="Label" parent="."]
offset_left = 16.0
offset_top = 46.0
offset_right = 217.0
offset_bottom = 85.0
scale = Vector2(2.12508, 2.42302)
theme_override_colors/font_color = Color(0, 0.698039, 0.807843, 1)
theme_override_fonts/font = ExtResource("3_8vfel")
theme_override_font_sizes/font_size = 32
text = "ACTIONS: 1"
