[gd_resource type="Resource" script_class="EfectData" load_steps=2 format=3 uid="uid://rtwj51y8vqem"]

[ext_resource type="Script" path="res://Cards/Effects/EfectData.gd" id="1_iodl0"]

[resource]
script = ExtResource("1_iodl0")
Tipo = 2
Efecto = 1
Objetivo = 3
amount = 1
