[gd_resource type="Resource" script_class="EfectData" load_steps=2 format=3 uid="uid://mfvltula8k8a"]

[ext_resource type="Script" path="res://Cards/Effects/EfectData.gd" id="1_fn0rl"]

[resource]
script = ExtResource("1_fn0rl")
Tipo = 2
Efecto = 3
Objetivo = 0
amount = 1
