[gd_resource type="Resource" script_class="EnemyData" load_steps=5 format=3 uid="uid://cmabim3m2a5u3"]

[ext_resource type="Texture2D" uid="uid://k7liprnrygyf" path="res://Img/tile012.png" id="1_e6an2"]
[ext_resource type="Resource" uid="uid://c5g34m003xaga" path="res://Cards/Effects/EnemyHeal.tres" id="1_gmv55"]
[ext_resource type="Script" path="res://Enemy/Enemydata/EnemyData.gd" id="1_jkbo8"]
[ext_resource type="Texture2D" uid="uid://dvs6hstrvdmd5" path="res://Img/tile000.png" id="2_y5osg"]

[resource]
script = ExtResource("1_jkbo8")
Vida = 20
Ataque = 2
Defensa = 5
Nombre = "NotAlien"
ImagenIdle = ExtResource("2_y5osg")
ImagenAtack = ExtResource("1_e6an2")
Efectos = Array[Resource("res://Cards/Effects/EfectData.gd")]([ExtResource("1_gmv55")])
