[gd_resource type="Resource" script_class="EnemyData" load_steps=5 format=3 uid="uid://46628xw2jk7a"]

[ext_resource type="Texture2D" uid="uid://m2ew7mte4shx" path="res://Img/hell-beast2.png" id="1_0cxny"]
[ext_resource type="Resource" uid="uid://doikb5umu6eq4" path="res://Cards/Effects/damageCards.tres" id="1_7fpw1"]
[ext_resource type="Script" path="res://Enemy/Enemydata/EnemyData.gd" id="1_aushf"]
[ext_resource type="Texture2D" uid="uid://o8bkno4m7pi0" path="res://Img/hell-beast1.png" id="2_52yfu"]

[resource]
script = ExtResource("1_aushf")
Vida = 8
Ataque = 7
Defensa = 10
Nombre = "Beast"
ImagenIdle = ExtResource("2_52yfu")
ImagenAtack = ExtResource("1_0cxny")
Efectos = Array[Resource("res://Cards/Effects/EfectData.gd")]([ExtResource("1_7fpw1")])
